<?xml version="1.0" encoding="UTF-8"?>
<svg width="311px" height="192px" viewBox="0 0 311 192" version="1.1" xmlns="http://www.w3.org/2000/svg" xmlns:xlink="http://www.w3.org/1999/xlink">
    <!-- Generator: Sketch 63.1 (92452) - https://sketch.com -->
    <title>play/spot-hero/spot-hero-404-error</title>
    <desc>Created with Sketch.</desc>
    <defs>
        <polygon id="path-1" points="0 0.219428289 310.8 0.219428289 310.8 179.574675 0 179.574675"></polygon>
        <polygon id="path-3" points="0.732137521 0.054 103.0673 0.054 103.0673 78.3293 0.732137521 78.3293"></polygon>
    </defs>
    <g id="Play" stroke="none" stroke-width="1" fill="none" fill-rule="evenodd">
        <g id="play/spot-hero/spot-hero-404-error" transform="translate(-25.000000, -25.000000)">
            <g transform="translate(25.000000, 24.000000)">
                <g id="Group-3" transform="translate(0.000000, 7.946000)">
                    <mask id="mask-2" fill="white">
                        <use xlink:href="#path-1"></use>
                    </mask>
                    <g id="Clip-2"></g>
                    <path d="M36.2831,178.8303 C-6.8529,176.8333 2.7521,134.1863 0.0561,49.6973 C-1.1499,11.8883 17.2061,4.0523 36.9631,2.1983 C50.7321,0.9053 114.9461,2.6083 174.7091,1.3143 C200.3351,0.7593 224.6881,0.4733 243.0271,0.2453 C297.0511,-0.4267 303.9961,12.0183 309.1231,34.5493 C311.9431,46.9443 310.3401,86.9413 310.4041,131.6543 C310.4661,174.9273 275.2221,178.1113 254.8881,178.5343 C251.6341,178.6013 247.4151,178.4173 244.1591,178.4123 C208.8141,178.3563 77.6341,180.7443 36.2831,178.8303" id="Fill-1" fill="#772583" mask="url(#mask-2)"></path>
                </g>
                <path d="M250.4492,144.5664 C234.6122,140.4544 223.2672,139.2234 223.2672,139.2234 L155.4002,131.7674 C155.4002,131.7674 139.1722,138.2014 114.2752,152.9704 C106.5212,157.5704 95.0242,164.1654 88.6352,174.7584 C87.0862,177.3274 85.7422,182.3684 84.6822,187.5164 C140.4812,187.5954 218.1892,186.3174 244.1592,186.3584 C247.4152,186.3634 251.6342,186.5474 254.8882,186.4804 C267.5442,186.2164 285.9712,184.8814 298.0722,173.4814 C291.1292,164.5744 276.9222,151.4404 250.4492,144.5664" id="Fill-4" fill="#00AA13"></path>
                <polygon id="Fill-6" fill="#000000" points="236.1396 111.6972 217.8156 137.0572 217.3456 113.2172"></polygon>
                <path d="M199.3788,11.4624 C199.3788,11.4624 213.6488,0.9154 243.0728,25.3754 C272.4978,49.8354 248.2638,92.4834 248.2638,92.4834 L228.1078,83.1054 L216.6678,30.9934 L199.3788,11.4624 Z" id="Fill-8" fill="#006880"></path>
                <path d="M145.7314,34.6821 C145.7314,34.6821 124.9744,106.9551 153.7474,136.5411 C175.5824,158.9921 214.4704,132.1171 214.4704,132.1171 L223.2474,115.8271 L224.9764,47.4081 C224.9764,47.4081 212.7894,28.3941 182.4744,25.9771 C153.7454,23.6861 145.7314,34.6821 145.7314,34.6821" id="Fill-10" fill="#A95631"></path>
                <path d="M166.5712,130.9101 C166.5712,130.9101 164.9082,143.2561 167.5072,154.9181 C171.9942,175.0571 214.9902,177.9871 220.3532,153.8891 C226.4182,126.6401 227.5222,111.4571 227.5222,111.4571 L166.5712,130.9101 Z" id="Fill-12" fill="#A95631"></path>
                <path d="M222.0869,89.1328 C222.0869,89.1328 230.3169,75.2148 242.3179,80.0258 C251.8669,83.8528 250.7539,98.6428 244.2459,106.0098 C232.8139,118.9518 219.5679,115.3478 219.5679,115.3478 L222.0869,89.1328 Z" id="Fill-14" fill="#A95631"></path>
                <path d="M222.2558,44.0219 C222.2558,44.0219 218.1098,66.4099 217.6448,80.7569 C217.4508,86.7189 217.6538,91.4609 221.4428,92.1549 C223.4918,92.5309 226.8388,84.5939 226.8388,84.5939 C231.3248,79.9449 236.0678,79.2749 236.0678,79.2749 L222.2558,44.0219 Z" id="Fill-16" fill="#000000"></path>
                <path d="M162.6708,54.2387 C158.4348,53.4757 152.1508,53.9677 151.0838,59.1277 C149.8888,64.9027 157.8598,66.6767 162.4088,66.7607 C166.9588,66.8447 173.0918,66.9827 172.8988,61.5207 C172.7038,56.0587 166.9068,55.0007 162.6708,54.2387" id="Fill-18" fill="#FFFFFF"></path>
                <path d="M201.3447,59.6953 C197.2157,58.4813 190.9157,58.2923 189.2987,63.3073 C187.4897,68.9213 195.2227,71.5433 199.7377,72.1163 C204.2507,72.6903 210.3337,73.4873 210.7287,68.0363 C211.1237,62.5853 205.4747,60.9093 201.3447,59.6953" id="Fill-20" fill="#FFFFFF"></path>
                <path d="M182.081,84.1157 C181.81,84.9537 181.123,86.8657 180.155,87.1407 C178.656,87.5667 178.692,85.3277 178.757,84.5197 C178.762,84.4607 178.737,84.4187 178.737,84.3617 C178.743,84.1997 178.718,84.0537 178.682,83.9077 C178.654,83.7827 178.631,83.6577 178.581,83.5477 C178.553,83.4897 178.515,83.4407 178.479,83.3867 C178.117,82.7757 177.45,82.4437 176.751,82.4337 C176.682,82.4307 176.617,82.4467 176.549,82.4497 C176.382,82.4627 176.221,82.4787 176.062,82.5277 C175.961,82.5577 175.87,82.6127 175.774,82.6607 C175.642,82.7267 175.516,82.7957 175.401,82.8927 C175.322,82.9607 175.259,83.0497 175.188,83.1337 C175.097,83.2457 175.012,83.3597 174.947,83.4997 C174.913,83.5667 174.859,83.6047 174.83,83.6777 C174.28,85.0447 173.577,86.3597 171.974,86.3767 C171.424,86.3837 171.103,86.3707 170.819,85.9537 C170.111,84.9137 171.137,83.5367 171.187,83.4327 C173.4,78.9127 175.572,74.4017 178.095,70.0447 C179.386,67.8157 176.095,65.4997 174.797,67.7407 C172.187,72.2467 169.927,76.9067 167.641,81.5787 C167.638,81.5837 167.634,81.5857 167.631,81.5907 C167.619,81.6117 167.473,81.9227 167.407,82.0537 C167.385,82.1007 167.393,82.1407 167.374,82.1867 C166.101,85.1487 166.609,89.2787 170.176,90.1897 C172.45,90.7717 174.34,90.2077 175.833,88.9937 C176.609,90.1607 177.801,91.0047 179.51,91.1777 C182.777,91.5077 184.981,88.2167 185.861,85.4937 C186.657,83.0327 182.878,81.6497 182.081,84.1157" id="Fill-22" fill="#000000"></path>
                <path d="M232.7802,91.103 C236.8922,90.042 239.0152,93.651 237.6692,97.314 C236.5442,100.372 233.9442,103.091 230.5022,102.936 C227.9222,102.818 227.5862,106.828 230.1782,106.945 C236.1982,107.217 241.2752,102.093 242.0772,96.246 C242.8842,90.347 237.8302,85.654 232.0262,87.151 C229.5352,87.793 230.2632,91.752 232.7802,91.103" id="Fill-24" fill="#000000"></path>
                <path d="M194.8339,63.5708 C194.6089,63.3928 194.3649,63.2538 194.1139,63.1328 C194.0749,63.1118 194.0329,63.0968 193.9929,63.0768 C193.9139,63.0428 193.8359,63.0038 193.7559,62.9748 C193.3029,62.7908 192.8149,62.7028 192.3159,62.7778 C190.9439,62.9808 189.8549,63.6728 189.4689,65.0708 C188.7559,67.6478 190.5849,70.2118 193.3689,69.7598 C196.2869,69.2858 197.0709,65.3388 194.8339,63.5708" id="Fill-26" fill="#000000"></path>
                <path d="M154.3134,58.2002 C152.1874,58.5452 151.0854,60.7352 151.6754,62.7132 C151.8554,63.3162 152.2284,63.8182 152.7054,64.1862 C153.1074,64.5732 153.6174,64.8632 154.2504,64.9652 C156.3904,65.3092 158.3934,63.6782 158.2694,61.4372 C158.1554,59.3632 156.3614,57.8682 154.3134,58.2002" id="Fill-28" fill="#000000"></path>
                <path d="M143.7783,37.3071 C141.2933,44.8841 139.5783,52.7801 138.1743,60.6171 C135.6673,74.6071 133.9233,89.2681 135.3343,103.4721 C136.4983,115.1871 139.9273,127.3821 148.4893,135.9151 C154.7283,142.1341 162.9653,145.4061 171.6183,146.3861 C179.9223,147.3271 188.5533,146.1111 196.4933,143.5991 C198.0323,143.1111 199.0203,141.5191 198.5813,139.9211 C198.1653,138.4051 196.4493,137.3441 194.9033,137.8321 C191.7233,138.8391 188.4683,139.6061 185.1733,140.1151 C185.0093,140.1401 183.7643,140.3121 184.5973,140.2041 C184.1343,140.2651 183.6713,140.3201 183.2073,140.3711 C182.2643,140.4741 181.3193,140.5541 180.3723,140.6101 C178.5183,140.7211 176.6593,140.7411 174.8023,140.6571 C173.9033,140.6161 173.0043,140.5521 172.1083,140.4601 C171.8803,140.4361 170.4503,140.2491 171.1863,140.3571 C170.6963,140.2851 170.2073,140.2111 169.7183,140.1241 C167.8363,139.7911 165.9753,139.3281 164.1613,138.7221 C163.6843,138.5621 163.2113,138.3921 162.7413,138.2141 C162.5673,138.1471 161.4443,137.6751 162.0513,137.9431 C161.0793,137.5151 160.1243,137.0531 159.1933,136.5381 C158.3243,136.0571 157.4763,135.5381 156.6553,134.9781 C156.2933,134.7311 155.9373,134.4751 155.5853,134.2161 C154.8813,133.6971 156.0283,134.5911 155.3483,134.0351 C155.0713,133.8081 154.7933,133.5851 154.5213,133.3521 C150.9703,130.3181 148.7373,127.3071 146.6033,123.1281 C144.0143,118.0581 142.4773,112.1101 141.6403,106.2521 C139.7363,92.9151 141.2063,78.9571 143.3393,65.7321 C144.7953,56.7071 146.6893,47.5981 149.5443,38.8961 C150.0473,37.3621 148.9593,35.6321 147.4563,35.2191 C145.8323,34.7731 144.2833,35.7671 143.7783,37.3071" id="Fill-30" fill="#000000"></path>
                <g id="Group-34" transform="translate(133.000000, 0.946000)">
                    <mask id="mask-4" fill="white">
                        <use xlink:href="#path-3"></use>
                    </mask>
                    <g id="Clip-33"></g>
                    <path d="M103.0673,78.3293 C103.0673,78.3293 92.7673,54.8703 83.5843,47.2403 C75.9193,40.8713 62.2553,34.2813 43.6693,32.6193 C20.3663,30.5363 9.5963,42.0033 9.5963,42.0033 C5.2343,37.0733 -5.1367,17.7093 5.1123,8.4253 C13.6273,0.7123 27.8713,-2.5677 54.0253,2.4483 C73.5153,6.1863 83.9743,18.5253 92.0103,34.0973 C100.4103,50.3703 103.0673,78.3293 103.0673,78.3293" id="Fill-32" fill="#008BAB" mask="url(#mask-4)"></path>
                </g>
                <path d="M155.1806,51.2558 C158.6016,52.1008 162.2376,52.6918 165.7076,51.7748 C169.0696,50.8878 171.6316,48.5288 173.9996,46.1098 C175.0956,44.9908 175.1996,42.9818 173.9996,41.8818 C172.8176,40.7958 170.9416,40.6878 169.7726,41.8818 C168.8436,42.8308 167.9086,43.7708 166.8786,44.6118 C167.3736,44.2068 166.5246,44.8608 166.4266,44.9258 C166.1356,45.1198 165.8376,45.3018 165.5306,45.4678 C165.4176,45.5288 164.4526,45.9248 165.0366,45.7188 C164.7336,45.8258 164.4306,45.9268 164.1186,46.0088 C163.8086,46.0908 163.4966,46.1528 163.1816,46.2108 C163.8466,46.0888 162.7436,46.2428 162.6136,46.2498 C161.9196,46.2858 161.2246,46.2648 160.5336,46.2068 C160.4096,46.1958 159.4416,46.0758 160.0746,46.1678 C159.7016,46.1138 159.3306,46.0488 158.9616,45.9788 C158.2266,45.8388 157.4966,45.6698 156.7706,45.4898 C155.2546,45.1158 153.4576,45.9748 153.0926,47.5778 C152.7416,49.1228 153.5566,50.8548 155.1806,51.2558" id="Fill-35" fill="#000000"></path>
                <path d="M192.9042,53.0117 C193.0292,52.9487 194.0002,52.5627 193.3362,52.7987 C193.6522,52.6857 193.9662,52.5727 194.2892,52.4797 C194.6112,52.3877 194.9372,52.3087 195.2662,52.2447 C195.4302,52.2127 195.5952,52.1837 195.7612,52.1587 C195.3822,52.2087 195.3672,52.2147 195.7162,52.1767 C196.3922,52.1497 197.0482,52.1487 197.7242,52.1767 C198.0732,52.2147 198.0572,52.2087 197.6772,52.1597 C197.8432,52.1857 198.0082,52.2147 198.1732,52.2477 C198.4372,52.3017 198.7002,52.3647 198.9612,52.4367 C199.2122,52.5067 199.4612,52.5837 199.7072,52.6707 C199.8462,52.7197 199.9862,52.7727 200.1252,52.8277 C199.7552,52.6677 199.7222,52.6557 200.0262,52.7917 C200.5592,53.0637 201.0842,53.3347 201.5832,53.6677 C201.7062,53.7507 201.8292,53.8357 201.9492,53.9237 C202.2142,54.1197 202.1892,54.0997 201.8762,53.8647 C202.1122,53.9747 202.3572,54.2757 202.5462,54.4547 C202.9782,54.8667 203.3712,55.3137 203.7382,55.7847 C204.7042,57.0247 206.9662,56.8737 207.9662,55.7847 C209.1742,54.4697 208.9972,52.8797 207.9662,51.5567 C206.0902,49.1477 203.2882,47.3687 200.3342,46.6137 C196.8012,45.7087 193.1212,46.2187 189.8852,47.8487 C188.4862,48.5537 187.9762,50.6407 188.8132,51.9397 C189.7352,53.3697 191.4072,53.7667 192.9042,53.0117" id="Fill-37" fill="#000000"></path>
                <path d="M169.1943,123.7002 C170.7923,126.2222 173.2863,128.4552 176.4543,128.3742 C177.2523,128.3532 178.0183,127.6862 177.9803,126.8472 C177.9443,126.0392 177.3093,125.3002 176.4543,125.3222 C176.3033,125.3262 176.1533,125.3252 176.0023,125.3162 C175.9353,125.3122 175.8693,125.3032 175.8023,125.3002 C175.5983,125.2902 176.1093,125.3572 175.9093,125.3142 C175.6123,125.2512 175.3223,125.1912 175.0343,125.0922 C174.9703,125.0702 174.9083,125.0442 174.8433,125.0232 C174.6573,124.9652 175.1873,125.1842 174.8813,125.0412 C174.7593,124.9832 174.6383,124.9272 174.5183,124.8622 C174.2503,124.7202 173.9983,124.5542 173.7493,124.3802 C173.5863,124.2652 173.7623,124.3762 173.8163,124.4352 C173.7733,124.3872 173.7113,124.3492 173.6603,124.3082 C173.5453,124.2122 173.4323,124.1112 173.3223,124.0082 C173.1143,123.8132 172.9173,123.6072 172.7283,123.3922 C172.6283,123.2792 172.5313,123.1632 172.4363,123.0452 C172.4083,123.0112 172.2593,122.8262 172.3993,123.0012 C172.5503,123.1892 172.3683,122.9552 172.3373,122.9132 C172.1593,122.6682 171.9913,122.4162 171.8293,122.1592 C171.4023,121.4852 170.4513,121.1542 169.7413,121.6122 C169.0673,122.0472 168.7373,122.9782 169.1943,123.7002" id="Fill-39" fill="#000000"></path>
                <path d="M171.496,105.0615 C175.231,104.9935 179.084,106.2975 181.837,108.8645 C184.091,110.9655 185.413,114.1895 184.434,117.2335 C183.952,118.7285 182.952,120.0905 181.53,120.8115 C180.117,121.5285 178.501,121.6945 176.962,121.3285 C173.842,120.5855 171.866,117.5465 171.81,114.4435 C171.768,112.1405 172.823,109.9935 174.433,108.4015 C173.474,108.1935 172.489,108.0945 171.496,108.1135 C170.668,108.1285 169.97,107.4035 169.97,106.5865 C169.97,105.7515 170.672,105.0775 171.496,105.0615" id="Fill-41" fill="#000000"></path>
                <path d="M167.8447,156.1767 L189.2037,144.1897 L166.2117,145.4887 C166.2117,145.4887 166.3327,147.9037 166.8097,151.1517 C167.2857,154.3997 167.8447,156.1767 167.8447,156.1767" id="Fill-43" fill="#000000"></path>
                <path d="M107.9658,166.7402 L152.8798,139.6032 C152.8798,139.6032 154.2708,140.6262 156.0598,141.6422 C157.8488,142.6592 160.4098,143.6762 160.4098,143.6762 L117.5358,168.3922 L107.9658,166.7402 Z" id="Fill-45" fill="#D1D1D1"></path>
                <polygon id="Fill-47" fill="#008BAB" points="116.0761 169.3828 125.1251 187.9908 153.0051 181.5498 151.9211 161.9928"></polygon>
                <polygon id="Fill-49" fill="#EE2737" points="160.582 159.6796 169.63 178.2866 197.51 171.8456 196.427 152.2886"></polygon>
                <path d="M111.4199,173.5537 C116.4429,172.1877 121.5389,171.0837 126.6319,170.0057 C127.0769,169.9107 126.5459,170.0237 126.4849,170.0357 C126.6589,169.9997 126.8329,169.9637 127.0059,169.9277 C127.4159,169.8417 127.8249,169.7567 128.2349,169.6717 C129.0719,169.4977 129.9099,169.3257 130.7479,169.1567 C132.3589,168.8277 133.9719,168.5047 135.5849,168.1857 C139.0959,167.4917 142.6099,166.8137 146.1269,166.1487 C159.3059,163.6547 172.5129,161.3127 185.7319,159.0397 C190.0909,158.2907 194.4509,157.5507 198.8139,156.8187 C200.8539,156.4757 203.8829,155.3547 203.7529,152.6747 C203.6329,150.2047 201.4869,148.7497 199.4349,149.0937 C189.6999,150.7287 178.7859,152.4857 169.0659,154.2097 C155.1229,156.6847 141.1859,159.2257 127.3179,162.1037 C121.1359,163.3867 114.9399,164.6777 108.8439,166.3347 C106.8469,166.8787 105.8669,169.3907 106.5229,171.2327 C107.2609,173.3077 109.4159,174.0987 111.4199,173.5537" id="Fill-51" fill="#FFFFFF"></path>
                <path d="M157.4189,162.0927 C159.1289,167.0407 160.9769,172.0187 163.0839,176.8137 C164.4959,180.0257 166.9769,182.4417 170.4519,183.2557 C173.2669,183.9147 175.5349,183.4967 178.6059,182.9587 C179.8359,182.7427 185.1999,181.5107 187.0509,181.2017 C189.6929,180.7627 192.4959,180.4157 194.9469,179.2787 C197.5649,178.0647 199.3689,176.0847 200.2049,173.3107 C200.8009,171.3357 200.7449,169.2077 200.7449,167.1627 C200.7449,162.5347 200.6309,157.9057 200.5109,153.2797 C200.4589,151.2917 198.4849,149.7407 196.5699,149.8817 C194.5049,150.0347 193.1199,151.8277 193.1729,153.8217 C193.2639,157.3427 193.3389,160.8637 193.3819,164.3857 C193.4059,166.3157 193.3379,170.2847 193.3039,170.5327 C193.0519,172.3657 191.4129,172.7897 190.9819,172.9267 C190.4979,173.0797 188.4919,173.5237 188.0729,173.5977 C184.9059,174.1597 175.5249,176.0117 175.3219,176.0417 C174.6899,176.1367 173.2659,176.3967 172.3979,176.2067 C171.2369,175.9527 170.4229,175.1777 170.0419,174.4007 C169.1089,172.4947 168.4329,170.4177 167.6599,168.4447 C166.5169,165.5197 165.3769,162.5887 164.3519,159.6197 C162.8059,155.1487 155.8679,157.6057 157.4189,162.0927" id="Fill-53" fill="#FFFFFF"></path>
                <path d="M199.7363,158.0957 C211.9363,148.8367 224.1983,139.6517 236.2993,130.2637 C236.5453,130.0737 236.7883,129.8807 237.0323,129.6897 C237.1813,129.5737 237.3183,129.4517 237.4723,129.3327 C237.7193,129.1407 237.9743,128.9587 238.2373,128.7877 C238.6693,128.5497 238.7403,128.4937 238.4503,128.6207 C238.7753,128.4577 239.1323,128.3367 239.4813,128.2377 C238.7263,128.4517 239.8743,128.2247 240.0943,128.2297 C239.2263,128.2117 240.1073,128.2587 240.2863,128.3277 C239.3823,127.9747 240.5153,128.4847 240.6753,128.5387 C241.4283,128.7987 240.2103,128.0817 240.7973,128.6067 C241.0573,128.8397 241.3453,129.0417 241.6043,129.2787 C241.8513,129.5037 243.0943,130.8527 242.2883,129.9437 C242.7433,130.4557 243.1923,130.9767 243.6663,131.4727 C245.0383,132.9097 247.6543,132.4747 248.8543,131.0747 C250.2543,129.4407 249.8333,127.3277 248.4563,125.8857 C248.0683,125.4797 248.4283,125.8247 248.6233,126.0797 C248.4983,125.9157 248.3463,125.7667 248.2093,125.6127 C247.6803,125.0197 247.1563,124.4137 246.5813,123.8667 C245.6273,122.9567 244.4893,122.1357 243.2703,121.6307 C239.5903,120.1047 235.9103,121.2217 232.8893,123.6027 C230.8493,125.2107 228.7753,126.7757 226.7113,128.3517 C218.5183,134.6037 210.3103,140.8357 202.1033,147.0687 C199.9243,148.7227 197.7463,150.3767 195.5673,152.0307 C193.9853,153.2307 193.4573,155.4527 194.6193,157.1477 C195.7053,158.7297 198.1463,159.3017 199.7363,158.0957" id="Fill-55" fill="#FFFFFF"></path>
                <path d="M111.8613,171.4453 C113.5713,176.3933 115.4193,181.3713 117.5263,186.1653 C118.9373,189.3783 121.4193,191.7943 124.8933,192.6083 C127.7083,193.2673 129.9773,192.8493 133.0473,192.3113 C134.2783,192.0953 139.6423,190.8623 141.4933,190.5543 C144.1343,190.1153 146.9373,189.7673 149.3893,188.6313 C152.0073,187.4173 153.8113,185.4363 154.6473,182.6623 C155.2423,180.6873 155.1863,178.5603 155.1863,176.5143 C155.1863,171.8873 155.0733,167.2583 154.9523,162.6323 C154.9003,160.6443 152.9273,159.0923 151.0123,159.2343 C148.9473,159.3863 147.5623,161.1793 147.6143,163.1743 C147.7063,166.6953 147.7803,170.2163 147.8243,173.7383 C147.8473,175.6673 147.7793,179.6373 147.7453,179.8853 C147.4933,181.7183 145.8543,182.1423 145.4243,182.2793 C144.9403,182.4313 142.9343,182.8763 142.5153,182.9503 C139.3483,183.5123 129.9663,185.3643 129.7633,185.3943 C129.1323,185.4893 127.7073,185.7493 126.8393,185.5583 C125.6793,185.3053 124.8653,184.5303 124.4843,183.7523 C123.5503,181.8473 122.8753,179.7693 122.1023,177.7973 C120.9583,174.8723 119.8193,171.9413 118.7933,168.9723 C117.2483,164.5013 110.3103,166.9583 111.8613,171.4453" id="Fill-57" fill="#FFFFFF"></path>
                <path d="M218.0995,130.635539 C214.1795,130.6747 209.4425,135.0597 216.8065,141.1637 C224.1695,147.2697 228.3395,151.5877 228.3395,151.5877 C228.3395,151.5877 219.5565,144.8707 215.6505,149.8757 C212.5695,153.8247 217.8295,159.0717 217.8295,159.0717 C217.8295,159.0717 210.7855,154.4737 207.0955,158.1397 C202.5335,162.6747 207.7315,168.2617 207.7315,168.2617 C207.7315,168.2617 199.7785,164.1927 197.8175,170.8527 C196.2575,176.1527 201.5545,182.1857 205.1945,186.8507 C224.9785,186.6427 242.7175,186.4487 255.9815,186.3577 C254.4205,176.5807 250.6225,156.0437 245.4635,150.0987 C238.6145,142.2067 223.2005,130.5857 218.0995,130.635539" id="Fill-59" fill="#914419"></path>
                <path d="M50.8007,106.748 C48.6757,107.093 47.5727,109.282 48.1627,111.261 C48.3427,111.863 48.7157,112.366 49.1927,112.733 C49.5947,113.121 50.1047,113.41 50.7377,113.513 C52.8777,113.857 54.8807,112.226 54.7567,109.984 C54.6427,107.91 52.8487,106.416 50.8007,106.748" id="Fill-61" fill="#FFFFFF"></path>
                <path d="M87.7939,71.6533 C85.7809,70.8863 83.7309,72.2283 83.2489,74.2363 C83.1029,74.8473 83.1739,75.4693 83.4019,76.0263 C83.5559,76.5633 83.8519,77.0693 84.3479,77.4743 C86.0269,78.8463 88.5779,78.4383 89.5949,76.4373 C90.5349,74.5853 89.7319,72.3923 87.7939,71.6533" id="Fill-63" fill="#FFFFFF"></path>
                <path d="M47.6435,88.8266 C50.6395,85.6736 52.3915,81.2366 51.9685,76.8626 C51.1465,68.3506 42.6365,61.6796 34.1805,64.6766 C29.9105,66.1896 26.4505,69.5176 25.2055,73.9296 C24.1545,77.6516 29.9415,79.2406 30.9905,75.5246 C31.3195,74.3616 31.9175,73.3166 32.7725,72.4456 C33.6445,71.5566 34.8905,70.7596 35.9335,70.4086 C36.2495,70.3026 36.5695,70.2096 36.8925,70.1316 C36.9905,70.1086 37.6195,70.0046 37.6475,69.9886 C37.9495,69.9596 38.2555,69.9466 38.5595,69.9486 C38.7165,69.9486 39.4685,70.0216 39.4675,70.0066 C40.8115,70.2506 42.0395,70.8186 43.0175,71.6536 C45.2855,73.5906 46.3905,76.4416 45.9555,79.3416 C45.7145,80.9416 45.0835,82.4816 44.1075,83.7756 C43.0165,85.2226 41.4845,86.2846 40.1825,87.5286 C39.2265,88.4416 38.5405,89.5996 38.5685,90.9536 C38.5955,92.3056 39.3475,93.4946 39.9495,94.6636 C41.1465,96.9896 42.3425,99.3156 43.5395,101.6406 C44.2815,103.0806 46.2995,103.5036 47.6445,102.7176 C49.1065,101.8626 49.4645,100.0586 48.7205,98.6126 C47.5615,96.3596 46.4015,94.1066 45.2425,91.8526 C45.1745,91.7226 45.0905,91.5046 44.9955,91.2706 C45.0235,91.2436 45.0535,91.2116 45.0785005,91.1916 C45.9515,90.4226 46.8415,89.6706 47.6435,88.8266" id="Fill-65" fill="#FFFFFF"></path>
                <path d="M90.0712,63.583 C90.1972,61.052 90.3232,58.521 90.4492,55.99 C90.4572,55.847 90.4932,55.616 90.5272,55.366 C90.0922,55.871 88.9592,55.554 89.8092,55.491 C90.0372,55.475 90.2922,55.404 90.5302,55.349 C90.5842,54.947 90.6302,54.499 90.5352,54.275 C90.7612,54.807 90.7072,55.139 90.5442,55.346 C90.5842,55.336 90.6272,55.325 90.6652,55.317 C91.8042,55.089 92.9542,54.887 94.0702,54.558 C98.0882,53.37 101.7132,50.571 103.5942,46.783 C107.4592,39.004 103.5072,28.601 94.5392,26.928 C90.0502,26.09 85.3952,27.224 82.0782,30.444 C79.3022,33.138 83.5482,37.379 86.3212,34.687 C87.2822,33.754 88.2132,33.238 89.5742,32.884 C90.6762,32.597 92.0952,32.541 93.1072,32.747 C95.7812,33.29 97.8932,34.902 98.7642,37.738 C99.6172,40.517 99.0502,43.516 97.1702,45.703 C96.1512,46.887 95.0522,47.74 93.5952,48.39 C92.0772,49.067 89.9742,49.278 88.2152,49.706 C86.9422,50.015 85.7842,50.669 85.1312,51.845 C84.4722,53.031 84.5272,54.428 84.4622,55.745 C84.3322,58.358 84.2012,60.97 84.0712,63.583 C83.9902,65.203 85.5082,66.583 87.0712,66.583 C88.7622,66.583 89.9902,65.208 90.0712,63.583" id="Fill-67" fill="#FFFFFF"></path>
                <path d="M90.5273,55.3657 C90.5333,55.3597 90.5383,55.3517 90.5443,55.3457 C90.5393,55.3467 90.5343,55.3477 90.5303,55.3487 C90.5293,55.3547 90.5283,55.3597 90.5273,55.3657" id="Fill-69" fill="#00AA13"></path>
                <path d="M99.1855,99.0112 C96.2285,97.6922 92.8555,97.6902 90.0105,99.3202 C88.6055,100.1262 88.1215,102.0352 88.9345,103.4252 C89.7595,104.8372 91.6275,105.3092 93.0395,104.5012 C93.1715,104.4212 93.3085,104.3472 93.4485,104.2782 C93.4595,104.2742 93.4635,104.2722 93.4775,104.2672 C93.7205,104.1992 93.9675,104.1362 94.2105,104.0652 C94.2485,104.0582 94.2665,104.0552 94.2955,104.0502 C94.4225,104.0402 94.5485,104.0302 94.6755,104.0282 C94.8655,104.0232 95.0525,104.0362 95.2405,104.0462 C94.9865,104.0462 95.7575,104.1262 95.9045,104.1652 C96.0805,104.2112 96.2515,104.2722 96.4235,104.3312 C96.3875,104.3372 96.9695,104.5942 97.0675,104.6532 C97.1645,104.7122 97.3315,104.8342 97.4085,104.8862 C97.5685,105.0292 97.7195,105.1792 97.8685,105.3342 C97.9295,105.4122 98.1025,105.6152 98.1515,105.6952 C98.4705,106.2192 98.5775,106.4512 98.7075,107.2902 C98.6305,106.7982 98.7015,107.9232 98.7045,108.0402 C98.7075,108.1772 98.7145,108.2402 98.7215,108.2732 C98.7085,108.2972 98.6895,108.3512 98.6595,108.4762 C98.6355,108.5692 98.4145,109.3252 98.4435,109.3142 C98.3165,109.6082 98.1485,109.8912 97.9755,110.1582 C97.9325,110.2272 97.8835,110.2922 97.8375,110.3592 C97.8365,110.3512 97.7805,110.4142 97.6535,110.5652 C97.5225,110.7052 97.3875,110.8402 97.2475,110.9692 C97.0015,111.1732 96.9565,111.2172 97.1125,111.1032 C97.2695,110.9922 97.2175,111.0282 96.9575,111.2142 C96.7995,111.3222 96.6385,111.4252 96.4725,111.5212 C96.3075,111.6182 96.1385,111.7092 95.9665,111.7942 C95.9345,111.8082 95.9155,111.8172 95.8895,111.8302 C95.8825,111.8292 95.7995,111.8582 95.6205,111.9272 C95.4385,111.9862 95.2535,112.0402 95.0685,112.0872 C94.9125,112.1262 94.7535,112.1572 94.5945,112.1872 C94.5785,112.1882 94.5705,112.1892 94.5485,112.1912 C93.6755,112.1932 92.8145,112.1972 91.9395,112.1532 C90.7745,112.0952 89.6645,112.2122 88.7175,112.9522 C87.8225,113.6532 87.4635,114.6242 87.1415,115.6782 C86.6145,117.4052 86.0865,119.1332 85.5595,120.8602 C85.1005,122.3602 86.1055,124.1972 87.6545,124.5512 C89.2775,124.9202 90.8545,124.0622 91.3445,122.4552 L92.6485,118.1862 C93.2825,118.2172 93.9155,118.2412 94.5485,118.1912 C97.4875,117.9592 100.3725,116.6872 102.2695,114.3752 C106.2455,109.5312 105.1845,101.6882 99.1855,99.0112" id="Fill-71" fill="#FFFFFF"></path>
                <path d="M87.829,127.8076 C86.228,126.6866 84.126,127.4126 83.257,129.0746 C82.993,129.5786 82.917,130.1426 82.995,130.6836 C83.012,131.1896 83.159,131.7006 83.507,132.1666 C84.681,133.7456 87.016,133.9536 88.354,132.4166 C89.593,130.9956 89.372,128.8876 87.829,127.8076" id="Fill-73" fill="#FFFFFF"></path>
                <path d="M206.8925,170.1123 C209.2605,171.2753 211.6775,172.7113 213.5545,174.4223 C215.4245,176.1283 216.3955,178.8133 217.1815,181.2013 C217.4855,182.1243 218.4245,182.7243 219.3955,182.4583 C220.2995,182.2103 220.9575,181.1713 220.6535,180.2443 C219.7055,177.3693 218.4935,174.1393 216.2485,172.0143 C214.0785,169.9583 211.3825,168.3173 208.7095,167.0043 C207.8375,166.5753 206.7625,166.7683 206.2465,167.6493 C205.7835,168.4423 206.0165,169.6813 206.8925,170.1123" id="Fill-75" fill="#000000"></path>
                <path d="M216.6611,160.7089 C218.0081,161.7209 219.3531,162.7329 220.6991,163.7449 C221.9231,164.6649 223.2691,165.5209 224.3351,166.6289 C225.3011,167.6329 225.9691,168.9729 226.6191,170.1919 C227.3351,171.5349 227.9091,172.9089 228.2651,174.3919 C228.8041,176.6449 232.2751,175.6899 231.7351,173.4349 C231.3331,171.7509 230.6501,170.1409 229.8501,168.6089 C229.0601,167.0949 228.1981,165.5399 227.0501,164.2649 C225.8931,162.9809 224.3501,162.0159 222.9771,160.9829 C221.4771,159.8549 219.9781,158.7289 218.4781,157.6009 C217.7011,157.0169 216.4671,157.4759 216.0151,158.2459 C215.4771,159.1679 215.8821,160.1229 216.6611,160.7089" id="Fill-77" fill="#000000"></path>
                <path d="M227.7372,152.8144 C230.2582,154.3294 232.3562,156.3834 234.3452,158.5304 C234.7812,159.0004 235.2152,159.4444 235.5212,160.0104 C235.8502,160.6204 236.0872,161.2854 236.3502,161.9244 C237.0122,163.5264 237.6742,165.1284 238.3362,166.7314 C238.7062,167.6284 239.5302,168.2684 240.5502,167.9884 C241.3982,167.7544 242.1802,166.6774 241.8062,165.7744 C241.1072,164.0804 240.4082,162.3864 239.7092,160.6934 C239.3792,159.8944 239.0802,159.0714 238.6842,158.3014 C238.2762,157.5054 237.6732,156.8324 237.0702,156.1784 C234.8252,153.7404 232.4102,151.4214 229.5542,149.7064 C227.5632,148.5094 225.7522,151.6214 227.7372,152.8144" id="Fill-79" fill="#000000"></path>
            </g>
        </g>
    </g>
</svg>